{
    "dependencies": [
        "opencv"
    ],
    "overrides": [
        {
            "name": "opencv",
            "version": "4.8.0"
        }
    ],
    "builtin-baseline":"c95000e1b5bb62884de08d5e952993c8bced9db6"
}